﻿[{
        "_id": "c-10100",
        "_parentId": "b-1010",
        "_type": "component",
        "_component": "text",
        "_classes": "",
        "_layout": "full",
        "title": "",
        "displayTitle": "",
        "body": "Kampanya Planlayıcı, Facebook ve Instagram’da reklam satın almadan önce erişim ve sıklık medya planlarını oluşturmak, karşılaştırmak ve paylaşmak için kullanılan bağımsız bir arayüzdür. Medya planlama veya satın alma görevlisiyseniz, verimli ve etkili sıklık ve erişim kampanyaları geliştirmek için planlama amacıyla Kampanya Planlayıcı’yı kullanabilirsiniz. Planın hangi versiyonunu kullanmak istediğinizi belirlediğinizde, doğrudan araçtan satın alabilirsiniz.",
        "instruction": "",
        "_pageLevelProgress": {
            "_isEnabled": false
        }
    }, 
    {
        "_id": "c-10110",
        "_parentId": "b-1010",
        "_type": "component",
        "_component": "text",
        "_classes": "",
        "_layout": "full",
        "title": "Kampanya Planlayıcı’nın temel özellikleri",
        "displayTitle": "Kampanya Planlayıcı’nın temel özellikleri",
        "body": "Verimli ve etkili erişim ve sıklık kampanyaları oluşturmanıza yardımcı olmak amacıyla tasarlanan Kampanya Planlayıcı’yla şunları yapabilirsiniz:<br><br><ul><li><b>Erişimi ve sıklığı tahmin edin:</b> Erişim, sıklık ve ücreti tahmin etmek için hedefleme, plan ve bütçe gibi detaylar ekleyin.</li><li><b>Plan versiyonları oluşturun ve karşılaştırın:</b> Bir medya planının farklı versiyonlarını oluşturup karşılaştırarak kampanyanız için hangi versiyonun daha etkili olacağına karar verin.</li><li><b>Planları kolayca paylaşın:</b> Oluşturduğunuz planlar hakkında müşterilerinizi ve iş arkadaşlarınızı sürekli bilgilendirin.</li><li><b>Planları satın alın: </b>Planın bir versiyonunu doğrudan araçtan satın alın.</li><br>Erişim ve sıklık aracıyla ilgili sorularınız varsa lütfen Facebook’ta Erişim ve Sıklık Satın Alma Blueprint kursuna bakın.",
        "instruction": "",
        "_pageLevelProgress": {
            "_isEnabled": true
        }
    },
 {
        "_id": "c-10200",
        "_parentId": "b-1020",
        "_type": "component",
       "_component": "text",
        "_classes": "",
        "_layout": "full",
        "title": "Kampanya Planlayıcı’yı neden kullanmalısınız?",
        "displayTitle": "Kampanya Planlayıcı’yı neden kullanmalısınız?",
        "body": "",
        "instruction": "",
        "_pageLevelProgress": {
            "_isEnabled": true
        }
    },
 {
        "_id": "c-10205",
        "_parentId": "b-1020",
        "_type": "component",
       "_component": "text",
        "_classes": "",
        "_layout": "left",
        "title": "",
        "displayTitle": "",
        "body": "Kampanya Planlayıcı’nın amacı, medya planlama uzmanları ve Facebook Pazarlama Ortakları’nın (FMP) Facebook ve Instagram kampanya planları için seçenekler geliştirmesine olanak tanımaktır. Power Editor ve Reklam Yöneticisi gibi reklam arayüzlerimizin kullandığı aynı erişim ve ücret verilerinden yararlanır.<br><br>Kampanya Planlayıcı’yı kullanmıyorsanız erişim ve ücret tahminlerini Power Editor veya Reklam Yöneticisi’nden almanız gerekir. Bu, her seçenek için verileri manuel olarak almayı, sonra da bu bilgileri paylaşmak üzere elektronik tabloya göndermeyi gerektirir.<br><br>Kampanya Planlayıcı ile mevcut planları çoğaltabilir ve planlarda değişiklikler yapabilirsiniz. Ayrıca, versiyonları karşılaştırırken hazır grafiklerden faydalanabilirsiniz.<br><br>Siz ve ekibiniz alışveriş planının bir versiyonuna karar verdikten sonra Kampanya Planlayıcı’dan planı satın alabilirsiniz, böylece planları satın alma arayüzlerinde yeniden oluşturmanıza gerek kalmaz ve ekipler arasında daha iyi iş akışları sağlayabilirsiniz.",
        "instruction": "",
        "_pageLevelProgress": {
            "_isEnabled": false
        }
    },
 {
        "_id":"c-10251",
        "_parentId":"b-1020",
        "_type":"component",
         "_component":"text",
        "_classes":"",
        "_layout":"right",
        "title":"",
        "displayTitle":"",
        "body":"<img src='course/en/images/chapter1.png'height='100%' width='750px'>",
        "instruction":"",
        "_pageLevelProgress": {
            "_isEnabled": false
        }
    },
  {
        "_id": "c-10310",
        "_parentId": "b-1030",
        "_type": "component",
        "_component": "text",
        "_classes": "",
        "_layout": "full",
        "title": "Hatırlanması gereken önemli noktalar",
        "displayTitle": "Hatırlanması gereken önemli noktalar",
        "body": "Kampanya Planlayıcı sadece erişim ve sıklık planlaması içindir; açık artırma planlamasını desteklemez.<br><br>Kampanya Planlayıcı kullanıcı seviyesinde çalışır, yani Kampanya Planlayıcı’da oluşturduğunuz Planlar veya Versiyonlar siz paylaşma işlevlerini kullanarak paylaşana kadar kimse tarafından görülmez.</li>",
        "instruction": "",
        "_pageLevelProgress": {
            "_isEnabled": true
        }
    }, 
 {
        "_id": "c-10315",
        "_parentId": "b-1035",
        "_type": "component",
        "_component": "text",
        "_classes": "",
        "_layout": "full",
        "title": "Kampanya Planlayıcı’ya erişme",
        "displayTitle": "Kampanya Planlayıcı’ya erişme",
        "body": "Kampanya Planlayıcı’ya iki şekilde erişebilirsiniz: <br><br><ul><li>Henüz yapmadıysanız Facebook’a giriş yapın, ardından doğrudan <a href='https://www.facebook.com/ads/planner' target='new'>Kampanya Planlayıcı</a> bağlantısına gidin.<br><br></li><li>Zaten erişim ve sıklık satın alıyorsanız, Reklam Yöneticisi ve Power Editor’da üst menüden Kampanya Planlayıcı’ya erişin.</li></ul>",
        "instruction": "",
        "_pageLevelProgress": {
            "_isEnabled": true
        }
    }, 
 {
        "_id": "c-10320",
        "_parentId": "b-1040",
        "_type": "component",
        "_component": "graphic",
        "_classes": "",
        "_layout": "full",
        "title": "",
        "displayTitle": "",
        "body": "",
        "instruction": "",
        "_pageLevelProgress": {
            "_isEnabled": false
        },
        "_graphic": {
            "alt": "alternatif metin",
            "src": "course/en/images/cp12getstarted.png"
        }
    }, 
     {
        "_id": "c-10325",
        "_parentId": "b-1045",
        "_type": "component",
        "_component": "text",
        "_classes": "",
        "_layout": "full",
        "title": "16",
        "displayTitle": "",
        "body": "<ul><li>Sonrasında, daha önce bağladığınız İşletmeyi seçin veya işletmenizi bağlamak için erişim talep formunu doldurun. Kampanya Planlayıcı, Planların belirli bir Sayfaya ilişkin doğru tahminler kullanılarak yapılması için bir Facebook Business Manager hesabına erişim gerektirir.<br><br></li><li>Business Manager hesabınızı ayarladıktan sonra, planlamaya başlayabilmeniz için özellikleri ve işlevleri açıklayan bir ürün turu gösterilir.</li></ul>",
        "instruction": "",
        "_pageLevelProgress": {
            "_isEnabled": false
        }
    }, 

    {
        "_id": "c-10600",
        "_parentId": "b-1060",
        "_type": "component",
        "_component": "co-jump",
        "_classes": "color-test",
        "_preLinkBody": "Sıradaki konumuz ",
        "_linkBody": "Kampanya Planlayıcı’yı Kullanmaya Başlama",
        "_postLinkBody": ".",
        "_link": "#/id/co-2000",
        "_graphic": "adapt/css/assets/icon_nextPage.png",
        "_pageLevelProgress": {
            "_isEnabled": false
        }
    }, 
    {
        "_id": "c-20200",
        "_parentId": "b-2020",
        "_type": "component",
        "_component": "text",
        "_classes": "",
        "_layout": "full",
        "title": "",
        "displayTitle": "",
        "body": "Bu bölümde, planlamadan satın almaya doğru ilerlerken Kampanya Planlayıcı’yı kullanmaya nasıl başlayacağınızı göstereceğiz:<ol><li>Temel bir plan oluşturun ve bu planın versiyonlarını oluşturmak için değişiklikler yapın.</li><li>Plan versiyonlarını karşılaştırın.</li><li>Planları ve versiyonları paylaşın.</li><li>Bir versiyonu satın alın.</li></ol><br><br>Bölümün ikinci kısmında, planlarınızı paylaştığınız kişiler için akışın nasıl çalıştığını göstereceğiz.",
        "instruction": "",
        "_pageLevelProgress": {
            "_isEnabled": false
        }
    }, 
   {
        "_id": "c-20205",
        "_parentId": "b-2020",
        "_type": "component",
        "_component": "text",
        "_classes": "",
        "_layout": "full",
        "title": "Plan oluşturucuları için akış ve işlevler",
        "displayTitle": "Plan oluşturucuları için Kampanya Planlayıcı akışı ve işlevleri",
        "body": "<h2>1. Temel planı oluşturun</h2><br>Kampanyanız için hedef kitleyi, sıklık üst sınırını, planı, reklam alanlarını, reklam verme amacını ve kreatif formatını seçerek bir temel plan oluşturun. Erişim ve sıklık için kullandığınız seçeneklerin tümünü Kampanya Planlayıcı’da kullanabilirsiniz. Plan oluşturmak için bir reklam hesabı gerekmez. Özel hedef kitle, kayıtlı hedef kitle ve gelişmiş demografik hedefleme kullanmak isterseniz reklam hesabınızı seçme fırsatınız olacaktır.",
        "instruction": "",
        "_pageLevelProgress": {
            "_isEnabled": true
        }
    },

        {
     "_id": "c-20275",
        "_parentId": "b-2020",
        "_type": "component",
        "_component": "graphic",
        "_classes": "",
        "_layout": "full",
        "title": "",
        "displayTitle": "",
        "body": "",
        "instruction": "",
        "_pageLevelProgress": {
            "_isEnabled": false
        },
        "_graphic": {
            "alt": "alternatif metin",
            "src": "course/en/images/cp1-createplan.png"
        }
    }, 
   {
       "_id": "c-20300",
        "_parentId": "b-2030",
        "_type": "component",
        "_component": "text",
        "_classes": "",
        "_layout": "full",
        "title": "",
        "displayTitle": "",
        "body": "Şimdi Planın farklı Versiyonlarını oluşturabilirsiniz. Plan, kapsayıcı kampanyadır. Versiyonlar ise Plan için yapılan erişim ve sıklık tahminleridir ve karşılaştırmak üzere birden fazla medya senaryosu oluşturmanıza olanak tanır. Her bir Plan için yayın planı, hedef kitle gibi özelliklerde değişiklikler yaparak altı adede kadar Versiyon oluşturabilirsiniz.",
        "instruction": "",
        "_pageLevelProgress": {
            "_isEnabled": false
        }
    }, 



    {
        "_id": "c-20400",
        "_parentId": "b-2040",
        "_type": "component",
        "_component": "graphic",
        "_classes": "",
        "_layout": "full",
        "title": "",
        "displayTitle": "",
        "body": "",
        "instruction": "",
        "_pageLevelProgress": {
            "_isEnabled": false
        },
        "_graphic": {
            "alt": "alternatif metin",
            "src": "course/en/images/cp2createversions.png"
        }
    }

    , {
       "_id": "c-20450",
        "_parentId": "b-2040",
        "_type": "component",
        "_component": "text",
        "_classes": "",
        "_layout": "full",
        "title": "",
        "displayTitle": "",
        "body": "Her Versiyonun yanında tahmininizin durumunu gösteren bir işaret görürsünüz:<br><br><ul><li><b>Durum</b> sütununun altındaki yeşil nokta tahmininizin güncel olduğunu gösterir.<br><br></li><li>Gri nokta, tahmininizin güncellenmesi gerektiğini gösterir ve yenileme seçeneği sunulur. Bir tahmini yenilemek için durum çubuğunun sağ tarafındaki yenileme simgesine tıklayın.<br><br></li></ul>Yeni tarihler için tahmin yapmak için durum çubuğunun sağ tarafındaki düzenleme simgesini kullanarak tarihleri değiştirin. Bir tahmini yenilemek için durum çubuğunun sağ tarafındaki yenileme simgesine tıklayın.",
        "instruction": "",
        "_pageLevelProgress": {
            "_isEnabled": false
        }
    }, 
    {
        "_id": "c-20475",
        "_parentId": "b-2040",
        "_type": "component",
        "_component": "graphic",
        "_classes": "",
        "_layout": "full",
        "title": "",
        "displayTitle": "",
        "body": "",
        "instruction": "",
        "_pageLevelProgress": {
            "_isEnabled": false
        },
        "_graphic": {
            "alt": "alternatif metin",
            "src": "course/en/images/contentObjects/module_2_status_of_prediction.png"
        }
    }

    , {
        "_id": "c-20500",
        "_parentId": "b-2050",
        "_type": "component",
        "_component": "text",
        "_classes": "",
        "_layout": "full",
        "title": "Versiyonları karşılaştırın",
        "displayTitle": "",
        "body": "<h2>2. Versiyonları karşılaştırın</h2><br>Birden fazla Versiyon oluşturduğunuzda, hazır grafikleri kullanarak bu versiyonları karşılaştırabilirsiniz. Benzer parametrelerle daha etkili bir Plan elde etme imkanınız olup olmadığını görebilmek için her zaman en az iki Versiyon oluşturmanızı öneriyoruz. Örneğin daha geniş hedefleme, daha uzun bir kampanya süresi, farklı reklam verme amaçları veya reklam alanları ya da daha düşük bir sıklık üst sınırı ile denemeler yapın.<br><br>Bu grafikler tahmini erişim, sıklık dağılımı, reklam alanı dağılımı ve günlük harcama gibi çeşitli kilit ölçümleri görüntüler.<br><br>Tüm karşılaştırma grafikleri sağ bölmede görüntülenir ve açılır menüden karşılaştırmak istediğiniz Versiyonları seçebilirsiniz.",
        "instruction": "",
        "_pageLevelProgress": {
            "_isEnabled": true
        }
    }, 
    {
        "_id": "c-20600",
        "_parentId": "b-2060",
        "_type": "component",
        "_component": "graphic",
        "_classes": "",
        "_layout": "full",
        "title": "",
        "displayTitle": "",
        "body": "",
        "instruction": "",
        "_pageLevelProgress": {
            "_isEnabled": false
        },
        "_graphic": {
            "alt": "alternatif metin",
            "src": "course/en/images/cp4-compare.png"
           }
    }, 
    {
        "_id": "c-20700",
        "_parentId": "b-2070",
        "_type": "component",
        "_component": "text",
        "_classes": "",
        "_layout": "full",
        "title": "Planları ve versiyonları paylaşın",
        "displayTitle": "",
        "body": "<h2>3. Planları ve versiyonları paylaşın</h2>",
        "instruction": "",
        "_pageLevelProgress": {
            "_isEnabled": true
        }
    },
 {
        "_id": "c-20710",
        "_parentId": "b-2070",
        "_type": "component",
        "_component": "graphic",
        "_classes": "",
        "_layout": "left",
        "title": "",
        "displayTitle": "",
        "body": "",
        "instruction": "",
        "_pageLevelProgress": {
            "_isEnabled": false
        },
        "_graphic": {
            "alt": "alternatif metin",
            "src": "course/en/images/contentObjects/module_2_2.png"
        }
    }, 
    {
        "_id": "c-20715",
        "_parentId": "b-2070",
        "_type": "component",
        "_component": "text",
        "_classes": "",
        "_layout": "right",
        "title": "",
        "displayTitle": "",
        "body": "Planları ve Versiyonları planlama sürecine dahil olan diğer kişilerle doğrudan Kampanya Planlayıcı’dan kolayca paylaşabilir ve hangi verileri paylaşacağınızı detaylı olarak kontrol edebilirsiniz. Örneğin, planı paylaşmak istiyor ancak bütçesini veya CPM’ini paylaşmak istemiyorsanız, Planı bu bilgiler kaldırılmış şekilde gönderebilirsiniz. Bu durumda, Planı paylaştığınız alıcı seçimlerini kaldırdığınız bilgileri görmez.<br><br>Bilgileri aşağıdaki yöntemlerle paylaşabilirsiniz:<ul><li>Planın önemli detaylarını ve bağlantılarını içeren bir e-posta gönderin.</li><li>Planın paylaşılabilir bir bağlantısını gönderin.</li><li>Planınızdaki Versiyonları CSV formatında dışa aktarın.</li></ul><br><i>Not: Sizinle bir plan paylaşıldığında bu planı doğrudan bir başka kişiyle paylaşamazsınız. Bu planı paylaşmak için kopyasını kaydetmeniz gerekir, bunun için de plandaki işletme koduna erişiminiz olmalıdır. Kopyayı kaydettikten sonra paylaşabilirsiniz. </i>",
        "instruction": "",
        "_pageLevelProgress": {
            "_isEnabled": false
        }
    },
    {
        "_id": "c-20725",
        "_parentId": "b-2080",
        "_type": "component",
        "_component": "graphic",
        "_classes": "",
        "_layout": "full",
        "title": "",
        "displayTitle": "",
        "body": "",
        "instruction": "",
        "_pageLevelProgress": {
            "_isEnabled": false
        },
        "_graphic": {
            "alt": "alternatif metin",
            "src": "course/en/images/cp5-sharing.png"
        }
    }, 

           {
        "_id": "c-20740",
        "_parentId": "b-2090",
        "_type": "component",
        "_component": "text",
        "_classes": "",
        "_layout": "full",
        "title": "",
        "displayTitle": "",
        "body": "<i><b>E-posta veya bağlantı üzerinden paylaşma</i></b><br>Bir planı e-posta veya bağlantı üzerinden paylaştığınızda alıcıların aşağıdaki eylemlerden birini veya her ikisini yapmalarına izin verebilirsiniz: <ol><li>“Kopya kaydetmeye izin ver” seçeneği ile alıcı, planın bir kopyasını kendi Kampanya Planlayıcı ortamına kaydedebilir. Planlama ekibinizin üyelerinin planlara erişmesi veya başvurması gerektiğinde bu seçenek faydalı olabilir. Satın alma personelinin de planı satın almadan önce düzenlemelerine olanak tanır. Planı gönderdiğiniz kişilerin Business Manager hesabının sahibi olan şirketin çalışanları olması gerektiğini unutmayın. </li><li>“Satın almaya izin ver” seçeneği ile alıcı, satın alma arayüzlerinde planı tekrar oluşturmasına gerek kalmadan doğrudan Kampanya Planlayıcı’dan envanter satın alabilir. Yalnızca siz veya planlama personeliniz alıcının planı satın almasına izin vermek istiyorsanız bu seçeneği kullanın. Paylaşma sırasında bu izin etkinleştirilmiş olsa bile, alıcının planı satın alabilmesi için planla ilişkili Sayfa ve reklam hesabında reklamveren izinlerinin olması gerekir.</li></ol><br><img src='course/en/images/recipient-action.png'><br><br><b><i>Hatırlatma...</i></b><br>Paylaşma özelliğinin ilgili planın tüm versiyonlarını gönderdiğini unutmayın. Bu nedenle planlama personelinizin hangi versiyonun satın alınacağını belirlemesi gerekir.  ",
        "instruction": "",
        "_pageLevelProgress": {
            "_isEnabled": false
        }
    }, 
          {
        "_id": "c-20750",
        "_parentId": "b-2100",
        "_type": "component",
        "_component": "text",
        "_classes": "",
        "_layout": "full",
        "title": "4. Planları satın alma",
        "displayTitle": "",
        "body": "<h2>4. Planları satın alma</h2><br>Kampanya Planlayıcı, erişim ve sıklık ile bağlantılı olduğu için doğrudan arayüzden bir plan versiyonu satın alabilirsiniz. Envanter satın almak için, planın tüm versiyonlarının yanındaki veya düzenleme penceresinin üst sağ köşesindeki “Satın Almak Üzere Rezerve Et” düğmesine tıklayın. Planın satın almak istediğiniz doğru versiyonunu seçtiğinizden emin olun.<br><br><img src='course/en/images/reserve-for-purchase.png'><br><br>İsterseniz planı satın alması için başka birine de gönderebilirsiniz. Bunun için planınızı bağlantı veya e-posta yoluyla paylaşırken satın alma özelliğini etkinleştirmeniz yeterlidir. Şimdi, planı gönderdiğiniz kişilerin envanter satın almak için Kampanya Planlayıcı’da nasıl çalışabileceğini göreceğiz. ",
        "instruction": "",
        "_pageLevelProgress": {
            "_isEnabled": false
        }
    }, 
 {
        "_id": "c-20800",
        "_parentId": "b-2110",
        "_type": "component",
        "_component": "text",
        "_classes": "",
        "_layout": "full",
        "title": "Planın gönderildiği kişiler için Kampanya Planlayıcı akışı ve işlevleri",
        "displayTitle": " Planın gönderildiği kişiler için Kampanya Planlayıcı akışı ve işlevleri",
        "body": "Şimdi, planı paylaştığınız kişilerin planı aldıktan sonra neler yapabileceğini inceleyeceğiz.<br><br>Bahsettiğimiz gibi, planlarınızı paylaşırken alıcıların planın bir kopyasını kaydetmesine ve doğrudan Kampanya Planlayıcı’dan envanter satın almasına izin verebilirsiniz.<br><br> <img src='course/en/images/copy-plan.png'><br><br><br>Plan artık alıcıların Kampanya Planlayıcı ortamına kaydedilmiştir ve sizin versiyonunuzu etkilemeden planda değişiklik yapabilirler.<br><br><img src='course/en/images/create-plan-version.png'><br><br><br>Planı gönderdiğiniz kişiler doğrudan Kampanya Planlayıcı’dan envanter satın alabilirler.<br><br><img src='course/en/images/reserve-for-purchase.png'><br><br><br>Ardından planı satın almak üzere rezerve edebilirler.<br><br><img src='course/en/images/cp9chooseplan.png'><br><br><br>Kampanya Planlayıcı onları rezerve ettikleri envanteri satın alabilecekleri Power Editor’a yönlendirir.<br><br><img src='course/en/images/RFcampaign.png'><br><br><br>Plandaki reklam seti detaylarını görebilir ve ardından envanteri satın alabilirler.<br><br><img src='course/en/images/targetreach.png'><br><br><br>",
        "instruction": "",
        "_pageLevelProgress": {
            "_isEnabled": false
        }
    }, 
    {
        "_id": "c-21400",
        "_parentId": "b-2140",
        "_type": "component",
        "_component": "co-jump",
        "_classes": "color-test",
        "_preLinkBody": "Artık Kampanya Planlayıcı’nın temel özelliklerini ve kullanmaya nasıl başlayacağınızı öğrendiniz. Şimdi işlediğimiz konuları gözden geçirelim: ",
        "_linkBody": "Bilgi Kontrolü",
        "_postLinkBody": ".",
        "_link": "#/id/co-3000",
        "_graphic": "adapt/css/assets/icon_nextPage.png",
        "_pageLevelProgress": {
            "_isEnabled": false
        }
    },

{
    "_id": "c-30200",
        "_parentId": "b-3020",
  "_type":"component",
  "_component":"mcq",
  "_classes":"",
  "_layout":"full",
  "_attempts":1,
  "_shouldDisplayAttempts": false,
  "_questionWeight":1,
  "_isRandom":false,
  "_setCompletionOn":"inview",
  "_selectable":2,
  "_isResetOnRevisit":true,
  "_canShowModelAnswer": true,
  "_recordInteraction":true,
  "title": "Soru 1/4",
  "displayTitle": "Soru 1/4",
  "body": "Kampanya Planlayıcı için aşağıdakilerden hangileri doğrudur? (İki seçim yapın)",
  "instruction": "",
  "_items": [
    {
      "text": "Kampanya Planlayıcı’ya erişmek için reklam hesabı gerekmez, ancak Business Manager’da bir işletmeye bağlı olmanız ve medya planları oluştururken bir Sayfa girmeniz gerekir.",
      "_shouldBeSelected":true
    },
    {
      "text": "Kampanya Planlayıcı, envanter satın aldıktan sonra planlama yapmak için tasarlanmıştır.",
      "_shouldBeSelected":false
    },
    {
      "text": "Kampanya Planlayıcı’da Plan oluştururken bir reklam hesabı ekleyebilir, böylece kayıtlı hedef kitlelerinize ve gelişmiş demografik hedeflemeye erişebilirsiniz.",
      "_shouldBeSelected":true
    },
    {
      "text": "Plan güncelse Durum sütunu gri olur. Tahminin süresi dolmuş veya tarihleri geçmişse sütun kırmızı olur.",
      "_shouldBeSelected":false
    },
      {
      "text": "Planınızı birden fazla kişi görebilir ve düzenleyebilir.",
      "_shouldBeSelected":false
    }
  ],
  "_feedback":{
    "correct":"Tebrikler, cevabınız doğru! Kampanya Planlayıcı’ya erişmek için reklam hesabı gerekmez, ancak Business Manager’da bir işletmeye bağlı olmanız gerekir.<br><br>Ayrıca medya planları oluştururken bir Sayfa girmeniz gerekir ve Kampanya Planlayıcı’da Plan oluştururken bir reklam hesabı ekleme seçeneğiniz vardır, böylece kayıtlı hedef kitlelerinize ve gelişmiş demografik hedeflemeye erişebilirsiniz.",
    "_incorrect": {
      "notFinal": "",
      "final": "Üzgünüz, yanlış cevap.<br>Kampanya Planlayıcı’ya erişmek için reklam hesabı gerekmez, ancak Business Manager’da bir işletmeye bağlı olmanız gerekir.<br><br>Ayrıca medya planları oluştururken bir Sayfa girmeniz gerekir ve Kampanya Planlayıcı’da Plan oluştururken bir reklam hesabı ekleme seçeneğiniz vardır, böylece kayıtlı hedef kitlelerinize ve gelişmiş demografik hedeflemeye erişebilirsiniz."
    },
    "_partlyCorrect": {
      "notFinal": "",
      "final": "Üzgünüz, yanlış cevap.<br>Kampanya Planlayıcı’ya erişmek için reklam hesabı gerekmez, ancak Business Manager’da bir işletmeye bağlı olmanız gerekir.<br><br>Ayrıca medya planları oluştururken bir Sayfa girmeniz gerekir ve Kampanya Planlayıcı’da Plan oluştururken bir reklam hesabı ekleme seçeneğiniz vardır, böylece kayıtlı hedef kitlelerinize ve gelişmiş demografik hedeflemeye erişebilirsiniz."
    }
  },
  "_buttons": {
    "_submit": {
      "buttonText": "Gönder",
      "ariaLabel": "Cevabınızı göndermek için burayı seçin."
    },
    "_reset": {
      "buttonText": "Sıfırla",
      "ariaLabel": ""
    },
    "_showCorrectAnswer": {
      "buttonText": "Doğru Cevap",
      "ariaLabel": ""
    },
    "_hideCorrectAnswer": {
      "buttonText": "Benim Cevabım",
      "ariaLabel": ""
    },
    "_showFeedback": {
      "buttonText": "Geribildirimi göster",
      "ariaLabel": ""
    },
    "remainingAttemptsText": "deneme kaldı",
    "remainingAttemptText": "son deneme"
  },
  "_pageLevelProgress": {
    "_isEnabled": true
  }
}



,{
   "_id": "c-30300",
        "_parentId": "b-3030",
  "_type":"component",
  "_component":"mcq",
  "_classes":"",
  "_layout":"full",
  "_attempts":1,
  "_shouldDisplayAttempts": false,
  "_questionWeight":1,
  "_isRandom":false,
  "_selectable":4,
  "_isResetOnRevisit":true,
  "_setCompletionOn":"inview",
  "_canShowModelAnswer": true,
  "_recordInteraction":true,
  "title": "Soru 2/4",
  "displayTitle": "Soru 2/4",
  "body": "Aşağıdakilerden hangileri, bir temel planın farklı versiyonlarını oluştururken karşılaştırma amacıyla değiştirebileceğiniz kampanya özelliklerindendir? (Dört seçim yapın)",
  "instruction": "",
  "_items": [
    {
      "text": "Hedefleme",
      "_shouldBeSelected":true
    },
    {
      "text": "Kampanya süresi",
      "_shouldBeSelected":true
    },
    {
      "text": "Reklam alanı",
      "_shouldBeSelected":true
    },
    {
      "text": "Reklam kreatifi",
      "_shouldBeSelected":false
    },
      {
      "text": "Sıklık üst sınırı",
      "_shouldBeSelected":true
    }
  ],
  "_feedback":{
    "correct":"Tebrikler, cevabınız doğru. Temel planın versiyonlarını oluştururken hedefleme, kampanya süresi, reklam alanı ve sıklık üst sınırı gibi özelliklerde değişiklik yapabilirsiniz.",
    "_incorrect": {
      "notFinal": "",
      "final": "Üzgünüz, yanlış cevap. Temel planın versiyonlarını oluştururken hedefleme, kampanya süresi, reklam alanı ve sıklık üst sınırı gibi özelliklerde değişiklik yapabilirsiniz."
    },
    "_partlyCorrect": {
      "notFinal": "",
      "final": "Üzgünüz, yanlış cevap. Temel planın versiyonlarını oluştururken hedefleme, kampanya süresi, reklam alanı ve sıklık üst sınırı gibi özelliklerde değişiklik yapabilirsiniz."
    }
  },
  "_buttons": {
    "_submit": {
      "buttonText": "Gönder",
      "ariaLabel": "Cevabınızı göndermek için burayı seçin."
    },
    "_reset": {
      "buttonText": "Sıfırla",
      "ariaLabel": ""
    },
    "_showCorrectAnswer": {
      "buttonText": "Doğru Cevap",
      "ariaLabel": ""
    },
    "_hideCorrectAnswer": {
      "buttonText": "Benim Cevabım",
      "ariaLabel": ""
    },
    "_showFeedback": {
      "buttonText": "Geribildirimi göster",
      "ariaLabel": ""
    },
    "remainingAttemptsText": "deneme kaldı",
    "remainingAttemptText": "son deneme"
  },
  "_pageLevelProgress": {
    "_isEnabled": true
  }
},


{
     "_id": "c-30400",
        "_parentId": "b-3040",
  "_type":"component",
  "_component":"mcq",
  "_classes":"",
  "_layout":"full",
  "_attempts":1,
  "_shouldDisplayAttempts": false,
  "_questionWeight":1,
  "_isRandom":false,
  "_selectable":1,
  "_isResetOnRevisit":true,
  "_canShowModelAnswer": true,
  "_setCompletionOn":"inview",
  "_recordInteraction":true,
  "title": "Soru 3/4",
  "displayTitle": "Soru 3/4",
  "body": "Planı başka kişilere gönderirken, siz Planı paylaştıktan sonra belirli işlemleri gerçekleştirmelerine izin verebilirsiniz. Aşağıdakilerden hangisi planı alan kişilerin gerçekleştirebileceği bir işlem <i>değildir</i>?",
  "instruction": "",
  "_items": [
    {
      "text": "Doğrudan başka kişilerle paylaşabilirler.",
      "_shouldBeSelected":true
    },
    {
      "text": "Kendi Kampanya Planlayıcı ortamlarına planın bir kopyasını kaydedebilirler.",
      "_shouldBeSelected":false
    },
    {
      "text": "Planı satın almak üzere rezerve edebilirler.",
      "_shouldBeSelected":false
    },{
      "text": "Kendi Kampanya Planlayıcı ortamlarında planda değişiklik yapabilirler.",
      "_shouldBeSelected":false
    }
  ],
  "_feedback":{
    "correct":"Tebrikler, cevabınız doğru! Planı alan kişiler planın bir kopyasını kendi Kampanya Planlayıcı ortamlarına kaydedebilirler ve sizin versiyonunuzu etkilemeden planda değişiklikler yapıp satın almak üzere planı rezerve edebilirler.",
    "_incorrect": {
      "notFinal": "",
      "final": "Üzgünüz, yanlış cevap. Planı alan kişiler planın bir kopyasını kendi Kampanya Planlayıcı ortamlarına kaydedebilirler ve sizin versiyonunuzu etkilemeden planda değişiklikler yapıp satın almak üzere planı rezerve edebilirler."
    },
    "_partlyCorrect": {
      "notFinal": "",
      "final": "Üzgünüz, yanlış cevap. Planı alan kişiler planın bir kopyasını kendi Kampanya Planlayıcı ortamlarına kaydedebilirler ve sizin versiyonunuzu etkilemeden planda değişiklikler yapıp satın almak üzere planı rezerve edebilirler."
    }
  },
  "_buttons": {
    "_submit": {
      "buttonText": "Gönder",
      "ariaLabel": "Cevabınızı göndermek için burayı seçin."
    },
    "_reset": {
      "buttonText": "Sıfırla",
      "ariaLabel": ""
    },
    "_showCorrectAnswer": {
      "buttonText": "Doğru Cevap",
      "ariaLabel": ""
    },
    "_hideCorrectAnswer": {
      "buttonText": "Benim Cevabım",
      "ariaLabel": ""
    },
    "_showFeedback": {
      "buttonText": "Geribildirimi göster",
      "ariaLabel": ""
    },
    "remainingAttemptsText": "deneme kaldı",
    "remainingAttemptText": "son deneme"
  },
  "_pageLevelProgress": {
    "_isEnabled": true
  }
},


{
   "_id": "c-30600",
        "_parentId": "b-3060",
  "_type":"component",
  "_component":"mcq",
  "_classes":"",
  "_layout":"full",
  "_attempts":1,
  "_shouldDisplayAttempts": false,
  "_questionWeight":1,
  "_isRandom":false,
  "_selectable":2,
  "_isResetOnRevisit":true,
  "_setCompletionOn":"inview",
  "_canShowModelAnswer": true,
  "_recordInteraction":true,
  "title": "Soru 4/4",
  "displayTitle": "Soru 4/4",
  "body": "Aşağıdaki yöntemlerden hangileriyle Planlarınızı paylaşabilirsiniz? (İki seçim yapın)",
  "instruction": "",
  "_items": [
    {
      "text": "Planınız üzerinde işbirliği yapmak için iş arkadaşlarınızı davet edin.",
      "_shouldBeSelected":false
    },
    {
     "text": "Araçtan Planınızın metnini gönderin.",
      "_shouldBeSelected":false
    },
    {
        "text": "Planın önemli detaylarını ve bağlantılarını içeren bir e-posta gönderin.",
      "_shouldBeSelected":true
    },
    {
      "text": "Planınızdaki Versiyonları CSV formatında dışa aktarın.",
      "_shouldBeSelected":true
     }
  ],
  "_feedback":{
    "correct":" Tebrikler, cevabınız doğru! Planın önemli detaylarını ve bağlantılarını içeren bir e-posta gönderebilir veya planınızın Versiyonlarını CSV formatında dışa aktarabilirsiniz.",
    "_incorrect": {
      "notFinal": "",
      "final": "Üzgünüz, yanlış cevap. Planın önemli detaylarını ve bağlantılarını içeren bir e-posta gönderebilir veya planınızın Versiyonlarını CSV formatında dışa aktarabilirsiniz."
    },
    "_partlyCorrect": {
      "notFinal": "",
      "final": "Üzgünüz, yanlış cevap. Planın önemli detaylarını ve bağlantılarını içeren bir e-posta gönderebilir veya planınızın Versiyonlarını CSV formatında dışa aktarabilirsiniz."
    }
  },
  "_buttons": {
    "_submit": {
      "buttonText": "Gönder",
      "ariaLabel": "Cevabınızı göndermek için burayı seçin."
    },
    "_reset": {
      "buttonText": "Sıfırla",
      "ariaLabel": ""
    },
    "_showCorrectAnswer": {
      "buttonText": "Doğru Cevap",
      "ariaLabel": ""
    },
    "_hideCorrectAnswer": {
      "buttonText": "Benim Cevabım",
      "ariaLabel": ""
    },
    "_showFeedback": {
      "buttonText": "Geribildirimi göster",
      "ariaLabel": ""
    },
    "remainingAttemptsText": "deneme kaldı",
    "remainingAttemptText": "son deneme"
  },
  "_pageLevelProgress": {
    "_isEnabled": true
 }
},
{
         "_id": "c-30700",
        "_parentId": "b-3070",
        "_type": "component",
        "_component":"co-jump",
        "_classes":"color-test",
        "_autoComplete":true,
        "_preLinkBody":"Bu kursu bitirmek için aşağıdaki düğmeye tıklayın. Not: Tüm modüller için durum çubuklarının tamamlandığından emin olmak için <a href='#'>buraya tıklayın</a>.<br>",
        "_linkBody":"<div style = 'text-align:center;padding:8px;'><button class='buttons-action'><b>BU KURSU BİTİRDİM</b></button></div><br> ",
        "_postLinkBody":"",
        "_link":"",
        "_pageLevelProgress": {
            "_isEnabled": false
        }
}     
]